id,name,code,iso_code,active
base.lang_as_IN,Assamese,as_IN,as,true
base.lang_as_EN,English,en_US,en,true
base.lang_kn_IN,Kannada / ಕನ್ನಡ,kn_IN,kn,true
base.lang_ks_IN,Kashmiri,ks_IN,ks,true
base.lang_kk_IN,Konkani,kk_IN,kk,true
base.lang_ml_IN,Malayalam / മലയാളം,ml_IN,ml,true
base.lang_mp_IN,Manipuri,mp_IN,mp,true
base.lang_mr_IN,Marathi,mr_IN,mr,true
base.lang_np_IN,Nepali,np_IN,np,true
base.lang_or_IN,Oriya,or_IN,or,true
base.lang_pn_IN,Punjabi,pn_IN,pn,true
base.lang_sn_IN,Sanskrit,sn_IN,sn,true
base.lang_si_IN,Sindhi,si_IN,si,true
base.lang_tm_IN,Tamil / தமிழ்,tm_IN,tm,true
base.lang_ur_IN,Urdu,ur_IN,ur,true