id,name,model_id:id,group_id:id,perm_read,perm_write,perm_create,perm_unlink
access_rejuvenation_pdfversion,rejuvenation_pdfversion,model_rejuvenation_pdfversion,group_rejuvenation,1,1,1,1
access_rejuvenation_consent_versioning,rejuvenation_consent_versioning,model_rejuvenation_consent_versioning,group_rejuvenation,1,1,1,1
access_program_type_master,program_type_master,model_program_type,group_rejuvenation,1,1,1,1
access_package_parameters,package_parameters,model_package_parameters,group_rejuvenation,1,1,1,1
access_participant_hadocs,participant_hadocs,model_participant_hadocs,group_rejuvenation,1,1,1,1
access_participant_hadocs_bouser,participant_hadocsbouser,model_participant_hadocs,group_rejuvenation_backofficeuser,1,1,1,1
access_participant_qa,participant_qa,model_participant_qa,group_rejuvenation,1,1,1,1
access_participant_qa_bouser,participant_qa_bouser,model_participant_qa,group_rejuvenation_backofficeuser,1,1,1,1
access_rejuvenation_program_schedule,rejuvenation_program_schedule,model_rejuvenation_program_schedule,group_rejuvenation,1,1,1,1
access_program_registration,program_registration,model_program_registration,group_rejuvenation,1,1,1,1
access_program_registration,program_registration,model_program_registration,group_rejuvenation_ocouser,1,0,0,0
access_program_registration_grpgrej_ocouser,access_program_registration_grpgrej_ocouser,model_program_registration,group_rejuvenation_ocouser,1,0,0,0
access_program_registration_grpgrej_opuser,access_program_registration_grpgrej_opuser,model_program_registration,group_rejuvenation_opuser,1,0,0,0
access_rejuvenation_program_schedule_roomdata,rejuvenation_program_schedule_roomdata,model_rejuvenation_program_schedule_roomdata,,1,1,1,1
access_program_history,program_history,model_program_history,,1,1,1,1
access_program_registration_changeprogramdate,program_registration_changeprogramdate,model_program_registration_changeprogramdate,,1,1,1,1
access_program_registration_transaction,program_registration_transaction,model_program_registration_transactions,group_rejuvenation,1,1,1,1
access_program_registration_transaction,program_registration_transaction,model_program_registration_transactions,group_rejuvenation_ocouser,1,0,0,0
access_program_registration_approval,program_registration_approval,model_program_registration_approval,,1,1,1,1
access_rejuvenation_rejection_reason,rejuvenation_rejection_reason,model_rejuvenation_rejection_reason,group_rejuvenation,1,1,1,1
access_rejuvenation_rejection_reason_bouser,rejuvenation_rejection_reason_bouser,model_rejuvenation_rejection_reason,group_rejuvenation_backofficeuser,1,1,1,1
access_rejuvenation_entity,rejuvenation_entity,model_rejuvenation_entity,group_rejuvenation,1,1,1,1
access_rejuvenation_globalnotificationevent,rejuvenation_globalnotificationevent,model_rejuvenation_globalnotificationevent,,1,0,0,0
access_rejuvenation_globalnotificationtemplate,rejuvenation_globalnotificationtemplate,model_rejuvenation_globalnotificationtemplate,group_rejuvenation,1,1,1,1
access_rejuvenation_paymentgateway,rejuvenation_paymentgateway,model_rejuvenation_paymentgateway,group_rejuvenation,1,0,0,0
access_rejuvenation_language1,rejuvenation_language1,model_rejuvenation_language1,,1,0,0,0
access_rejuvenation_practice,rejuvenation_practice,model_rejuvenation_practice,group_rejuvenation,1,1,1,1
access_rejuvenation_healthreports,rejuvenation_healthreports,model_rejuvenation_healthreports,group_rejuvenation,1,1,1,1
access_rejuvenation_inquiry,rejuvenation_inquiry,model_rejuvenation_inquiry,group_rejuvenation,1,1,1,1
access_rejuvenation_notificationevent,rejuvenation_notificationevent,model_rejuvenation_notificationevent,,1,0,0,0
access_rejuvenation_notificationtemplate,rejuvenation_notificationtemplate,model_rejuvenation_notificationtemplate,group_rejuvenation,1,1,1,1
access_rejuvenation_notificationtemplate_bouser,rejuvenation_notificationtemplate_bouser,model_rejuvenation_notificationtemplate,group_rejuvenation_backofficeuser,1,1,1,1
access_rejuvenation_roomtype,rejuvenation_roomtype,model_rejuvenation_roomtype,group_rejuvenation,1,1,1,1
access_rejuvenation_questionbank,rejuvenation_questionbank,model_rejuvenation_questionbank,,1,0,0,0
access_master_centers,master_centers,model_master_centers,group_rejuvenation,1,1,1,1
access_master_regions,master_regions,model_master_regions,group_rejuvenation,1,1,1,1
access_idproof_list,idproof_list,model_idproof_list,group_rejuvenation,1,1,1,1
access_master_lob,master_lob,model_master_lob,group_rejuvenation,1,1,1,1
access_program_teachernames,program_teachernames,model_program_teachernames,group_rejuvenation,1,1,1,1
access_ishalife_treatments,ishalife_treatments,model_ishalife_treatments,,1,1,1,1
access_current_medicalhistory,current_medicalhistory,model_current_medicalhistory,,1,1,1,1
access_current_allopathymedications,current_allopathymedications,model_current_allopathymedications,,1,1,1,1
access_current_alternatemedications,current_alternatemedications,model_current_alternatemedications,,1,1,1,1
access_medication_allergies,current_medicationallergies,model_medication_allergies,,1,1,1,1
access_treatment_details,treatment_details,model_treatment_details,,1,1,1,1
access_user_idproof_list,user_idproof_list,model_idproof_list,,1,0,0,0
access_user_master_centers,user_master_centers,model_master_centers,,1,0,0,0
access_user_master_lob,user_master_lob,model_master_lob,,1,0,0,0
access_user_master_regions,user_master_regions,model_master_regions,,1,0,0,0
access_user_package_parameters,user_package_parameters,model_package_parameters,,1,0,0,0
access_user_participant_qa,user_participant_qa,model_participant_qa,,1,1,1,0
access_user_program_registration,user_program_registration,model_program_registration,,1,1,1,0
access_user_program_registration_transaction,user_program_registration_transaction,model_program_registration_transactions,,1,1,1,0
access_user_program_teachernames,user_program_teachernames,model_program_teachernames,,1,0,0,0
access_user_program_type_master,user_program_type_master,model_program_type,,1,0,0,0
access_user_rejuvenation_entity,user_rejuvenation_entity,model_rejuvenation_entity,,1,0,0,0
access_user_rejuvenation_healthreports,user_rejuvenation_healthreports,model_rejuvenation_healthreports,,1,0,0,0
access_user_rejuvenation_inquiry,user_rejuvenation_inquiry,model_rejuvenation_inquiry,,1,1,1,0
access_user_rejuvenation_notificationtemplate,user_rejuvenation_notificationtemplate,model_rejuvenation_notificationtemplate,,1,0,0,0
access_user_rejuvenation_pgateway,user_rejuvenation_pgateway,model_rejuvenation_paymentgateway,,1,0,0,0
access_user_rejuvenation_practice,user_rejuvenation_practice,model_rejuvenation_practice,,1,0,0,0
access_user_rejuvenation_program_schedule,user_rejuvenation_program_schedule,model_rejuvenation_program_schedule,,1,1,1,0
access_user_rejuvenation_rejection_reason,user_rejuvenation_rejection_reason,model_rejuvenation_rejection_reason,,1,0,0,0
access_user_rejuvenation_roomtype,user_rejuvenation_roomtype,model_rejuvenation_roomtype,,1,0,0,0
access_family_history,family_history,model_family_history,,1,1,1,1
access_refractive_error,refractive_error,model_refractive_error,,1,1,1,1
access_joints_affected,joints_affected,model_joints_affected,,1,1,1,1
access_duration_sensation,duration_sensation,model_duration_sensation,,1,1,1,1
access_rejuvenation_language1,rejuvenation_language1,model_rejuvenation_language1,group_rejuvenation,1,1,1,1
access_rejuvenation_terms_and_conditions1,rejuvenation_terms_and_conditions1,model_rejuvenation_terms_and_conditions,group_rejuvenation,1,1,1,1
access_rejuvenation_terms_and_conditions2,rejuvenation_terms_and_conditions2,model_rejuvenation_terms_and_conditions,group_rejuvenation_backofficeuser,1,1,1,1
access_sms_template1,sms_template1,sms.model_sms_template,group_rejuvenation,1,1,1,1
access_sms_template2,sms_template2,sms.model_sms_template,group_rejuvenation_backofficeuser,1,1,1,1
access_rejuvenation_questionbank1,rejuvenation_questionbank1,model_rejuvenation_questionbank,group_rejuvenation,1,1,1,1
access_rejuvenation_questionbank2,rejuvenation_questionbank2,model_rejuvenation_questionbank,group_rejuvenation_backofficeuser,1,1,1,1
access_master_program_category,master_program_category,model_master_program_category,,1,1,1,1
access_attachmoaenttype_portal_user,access_attachmenttype_portal_user,model_documenttype,,1,0,0,0
access_attachmoaenttype,access_attachmenttype,model_documenttype,,1,1,1,1
access_request_attachment_portal_user,access_request_attachment_portal_user,model_request_attachment,,1,1,1,1
access_user_participant_hadocs,user_participant_hadocs,model_participant_hadocs,,1,1,1,0
access_user_participant_paymenttransaction,user_participant_paymenttransaction,model_participant_paymenttransaction,,1,0,1,0
access_participant_paymenttransaction,participant_paymenttransaction,model_participant_paymenttransaction,,1,1,1,1
access_user_rejuvenation_tempdebuglog,user_rejuvenation_tempdebuglog,model_rejuvenation_tempdebuglog,,1,1,1,0
access_rejuvenation_tempdebuglog,rejuvenation_tempdebuglog,model_rejuvenation_tempdebuglog,,1,1,1,1
access_user_rejuvenation_globalnotificationtemplate,user_rejuvenation_globalnotificationtemplate,model_rejuvenation_globalnotificationtemplate,,1,0,0,0
access_finance_participant_paymenttransaction,access_finance_participant_paymenttransaction,model_participant_paymenttransaction,group_rejuvenation_finance,1,0,0,0
access_finance_program_registration,access_finance_program_registration,model_program_registration,group_rejuvenation_finance,1,0,0,0
