id,name,model_id:id,group_id:id,perm_read,perm_write,perm_create,perm_unlink
access_ticket_autoresponse,access_ticket_autoresponse,model_ticket_autoresponse,bi_website_support_ticket.group_support_manager,1,1,1,1
access_ticket_autoresponse_user,access_ticket_autoresponse_user,model_ticket_autoresponse,bi_website_support_ticket.group_support_user,1,0,0,0
