id,name,model_id:id,group_id:id,perm_read,perm_write,perm_create,perm_unlink
bi_website_knowledge_base_category,bi_website_knowledge_base_category_name,model_knowledge_category,bi_website_support_ticket.group_support_user,1,1,1,0
bi_website_knowledge_base_tags,bi_website_knowledge_base_tags_name,model_knowledge_tags,bi_website_support_ticket.group_support_user,1,1,1,0
bi_website_knowledge_bases,bi_website_knowledge_bases_name,model_knowledge_bases,bi_website_support_ticket.group_support_user,1,1,1,0
bi_website_knowledge_base_category_mngr,bi_website_knowledge_base_category_name_mngr,model_knowledge_category,bi_website_support_ticket.group_support_manager,1,1,1,1
bi_website_knowledge_base_tags_mngr,bi_website_knowledge_base_tags_name_mngr,model_knowledge_tags,bi_website_support_ticket.group_support_manager,1,1,1,1
bi_website_knowledge_bases_mngr,bi_website_knowledge_bases_name_mngr,model_knowledge_bases,bi_website_support_ticket.group_support_manager,1,1,1,1
