id,name,model_id:id,group_id:id,perm_read,perm_write,perm_create,perm_unlink
access_analytic_contract_line,access.analytic.contract.line,bi_contract_recurring_invoice_analytic.model_analytic_contract_line,analytic.group_analytic_accounting,1,1,1,1
access_analytic_sale_order_line,access.analytic.sale.order.line,bi_contract_recurring_invoice_analytic.model_analytic_sale_order_line,analytic.group_analytic_accounting,1,1,1,1
