id,name,model_id:id,group_id:id,perm_read,perm_write,perm_create,perm_unlink
access_satsang_registration,satsang_registration,model_satsang_registration,group_satsang,1,1,1,1
access_satsang_schedule,satsang_schedule,model_satsang_schedule,group_satsang,1,1,1,1
access_satsang_keyvalue,satsang_keyvalue,model_satsang_key_value_config,group_satsang,1,1,1,1
access_satsang_tempdebuglog,satsang_tempdebuglog,model_satsang_tempdebuglog,group_satsang,1,1,1,1
access_satsang_notificationtemplate,satsang_notificationtemplate,model_satsang_notificationtemplate,group_satsang,1,1,1,1
access_satsang_notificationevent,satsang_notificationevent,model_satsang_notificationevent,group_satsang,1,1,0,1
access_satsang_notificationsettingtemplate,satsang_notificationsettingtemplate,model_satsang_notificationsettingtemplate,group_satsang,1,1,1,1
access_satsang_uicaptionlist,satsang_uicaptionlist,model_satsang_uicaptionlist,group_satsang,1,1,1,1
access_satsang_tzlang,satsang_tzlang,model_satsang_tzlang,group_satsang,1,1,1,1
access_satsang_tzregion,satsang_tzregion,model_satsang_tzregion,group_satsang,1,1,1,1
access_satsang_lang_mailtempate,satsang_lang_mailtempate,model_satsang_lang_mailtempate,group_satsang,1,1,1,1
access_satsang_schedule,satsang_schedule,model_satsang_schedule,isha_crm.group_online_satsang_grp,1,0,0,0