id,name,model_id:id,group_id:id,perm_read,perm_write,perm_create,perm_unlink
access_sp_registration,sp.registration,model_sp_registration,sp_registration_implicit,1,0,0,0
access_sp_registration_pre_reg_caller,sp.registration.pre_reg_caller,model_sp_registration,group_sp_registration_pre_reg_caller,1,1,0,0
access_registration_tag_implicit,registration.tag_implicit,model_registration_tag,sp_registration_implicit,1,0,0,0
access_registration_tag_pre_reg_caller,registration.tag_pre_reg_caller,model_registration_tag,group_sp_registration_pre_reg_caller,1,1,0,0
access_registration_tag_type_pre_reg_caller,registration.tag.type_pre_reg_caller,model_registration_tag_type,group_sp_registration_pre_reg_caller,1,1,0,0
access_registration_tag_sp_registration_admin,registration.tag_sp_registration_admin,model_registration_tag,group_sp_registration_admin,1,1,1,0
access_registration_tag_type_sp_registration_admin,registration.tag.type_sp_registration_admin,model_registration_tag_type,group_sp_registration_admin,1,1,0,0
access_why_sadhanapada,why.sadhanapada,model_why_sadhanapada,sp_registration_implicit,1,0,0,0
access_why_sadhanapada_pre_reg_caller,why.sadhanapada.pre_reg_caller,model_why_sadhanapada,group_sp_registration_pre_reg_caller,1,1,0,0
access_about_sadhanapada,about.sadhanapada,model_about_sadhanapada,sp_registration_implicit,1,0,0,0
access_about_sadhanapada_pre_reg_caller,about.sadhanapada.pre_reg_caller,model_about_sadhanapada,group_sp_registration_pre_reg_caller,1,1,0,0
access_bsp_language,bsp.language,model_bsp_language,group_sp_registration_pre_reg_caller,1,1,0,0
access_registration_batch,registration.batch,model_registration_batch,sp_registration_implicit,1,0,0,0
access_registration_batch_pre_reg_caller,registration.batch.pre_reg_caller,model_registration_batch,group_sp_registration_pre_reg_caller,1,1,0,0
access_registration_status,registration.status,model_registration_status,sp_registration_implicit,1,0,0,0
access_registration_status_pre_reg_caller,registration.status.pre_reg_caller,model_registration_status,group_sp_registration_pre_reg_caller,1,1,0,0
access_application_stage,application.stage,model_application_stage,group_sp_registration_pre_reg_caller,1,1,0,0
access_cancellation_reason,cancellation.reason,model_cancellation_reason,isha_sp_registration.group_sp_registration_pre_reg_caller,1,1,0,0
access_cancellation_reason_screen_doctor,cancellation.reason_screen_doctor,model_cancellation_reason,isha_sp_registration.group_sp_ha_screening_doctor,1,0,0,0
access_cancellation_reason_review_doctor,cancellation.reason_review_doctor,model_cancellation_reason,isha_sp_registration.group_sp_ha_doctor_approval,1,0,0,0
access_cancellation_reason_ha_manager,cancellation.reason_ha_manager,model_cancellation_reason,isha_sp_registration.group_sp_ha_manager,1,0,0,0
access_registration_feedback,registration.feedback,model_registration_feedback,sp_registration_implicit,1,0,0,0
access_registration_feedback_sp_admin,registration.feedback.sp_admin,model_registration_feedback,group_sp_registration_admin,1,0,1,1
access_registration_feedback_pre_reg_caller,registration.feedback.pre_reg_caller,model_registration_feedback,group_sp_registration_pre_reg_caller,1,0,1,0
access_rejection_email_type,access_rejection_email_type,model_rejection_email_type,sp_registration_implicit,1,0,0,0
access_rejection_email_type_admin,access_rejection_email_type_admin,model_rejection_email_type,group_sp_registration_admin,1,1,1,0
access_feedback_type,feedback.type,model_feedback_type,sp_registration_implicit,1,1,0,0
access_ir_sequence_group_all,ir.sequence,base.model_ir_sequence,group_sp_registration_pre_reg_caller,1,0,0,0
access_application_stage_route,application_stage_route,model_application_stage_route,group_sp_registration_pre_reg_caller,1,1,0,0
access_sp_call_status,access_sp_call_status,model_sp_call_status,group_sp_registration_pre_reg_caller,1,1,0,0
access_pre_reg_status,access_pre_reg_status,model_sp_pre_reg_status,group_sp_registration_pre_reg_caller,1,1,0,0
access_pending_other_reason,pending.other.reason,model_pending_other_reason,group_sp_registration_pre_reg_caller,1,1,0,0
access_application_processing_priority,application.processing.priority,model_application_processing_priority,sp_registration_implicit,1,0,0,0
access_application_processing_priority_admin,application.processing.priority.admin,model_application_processing_priority,group_sp_registration_admin,1,1,1,1
access_res_partner_all,res_partner_all,base.model_res_partner,group_sp_registration_pre_reg_caller,1,0,0,0
access_incident_incident_caller,isha_ims.incident_incident,isha_ims.model_incident_incident,group_sp_registration_pre_reg_caller,1,0,0,0
access_incident_stage_caller,isha_ims.incident_stage,isha_ims.model_incident_stage,group_sp_registration_pre_reg_caller,1,0,0,0
access_mail_template_sp_implicit,mail.template_sp_implicit,mail.model_mail_template,sp_registration_implicit,1,0,1,0
access_mail_template_sp_pre_reg_caller,mail.template_pre_reg_caller,mail.model_mail_template,group_sp_registration_pre_reg_caller,1,0,1,0
access_mail_template_sp_pre_reg_co_ordinator,mail.template_sp_pre_reg_co_ordinator,mail.model_mail_template,group_sp_registration_pre_reg_co_ordinator,1,0,1,0
access_mail_template_sp_pre_reg_reviewer,mail.template_sp_pre_reg_reviewer,mail.model_mail_template,group_sp_registration_pre_reg_reviewer,1,0,1,0
access_mail_template_sp_pre_reg_admin,mail.template_sp_pre_reg_admin,mail.model_mail_template,group_sp_registration_pre_reg_admin,1,0,1,0
access_mail_template_sp_admin,mail.template_sp_admin,mail.model_mail_template,group_sp_registration_admin,1,1,1,0
access_registration_status_type,registration.status.type,model_registration_status_type,sp_registration_implicit,1,0,0,0
access_registration_status_type_pre_reg_caller,registration.status.type.pre_reg_caller,model_registration_status_type,group_sp_registration_pre_reg_caller,1,1,0,0
access_sp_registration_settings_admin,sp.registration.settings,model_sp_registration_settings,group_sp_registration_admin,1,1,1,0
access_sp_interview_form_caller,sp.interview.form.caller,model_sp_interview_form,group_sp_registration_pre_reg_caller,1,0,0,0
access_sp_interview_form_reviewer,sp.interview.form.reviewer,model_sp_interview_form,group_sp_appointment_reviewer,1,0,0,0
access_sp_interview_form_interviewer,sp.interview.form.interviewer,model_sp_interview_form,group_sp_appointment_interviewer,1,1,0,0
access_sp_interview_form_vro,sp.interview.form.vro,model_sp_interview_form,sp_registration_vro_consultant,1,0,0,0
access_sp_interview_form_oco,sp.interview.form.oco,model_sp_interview_form,sp_registration_oco_consultant,1,0,0,0
access_sp_interview_form_admin,sp.interview.form.admin,model_sp_interview_form,group_sp_registration_admin,1,1,1,1
access_sp_interview_form_ha_screening_doctor,sp.interview.form.ha_screening_doctor,model_sp_interview_form,group_sp_ha_screening_doctor,1,0,0,0
access_sp_interview_form_ha_manager,sp.interview.form.ha_manager,model_sp_interview_form,group_sp_ha_manager,1,0,0,0
access_sp_interviewer_feedback_user,sp.interviewer.feedback.user,model_sp_interviewer_feedback,sp_registration_implicit,1,1,1,1
access_sp_interviewer_question_user,sp.interviewer.question.user,model_sp_interviewer_question,sp_registration_implicit,1,1,1,0
access_sp_interviewer_suggestion_user,sp.interviewer.suggestion.user,model_sp_interviewer_suggestion,sp_registration_implicit,1,1,1,0
access_sp_reviewer_suggestion_user,sp.reviewer.suggestion.user,model_sp_reviewer_suggestion,sp_registration_implicit,1,1,1,0
access_break_practice_reasons_all_users,break.practice.reasons.all_users,model_break_practice_reasons,sp_registration_implicit,1,0,0,0
access_break_practice_reasons_registration_admin,break.practice.reasons.registration_admin,model_break_practice_reasons,group_sp_registration_admin,1,1,1,0

access_sp_reg_health_assessment_screen_doctor,access_sp_reg_health_assessment_screen_doctor,model_sp_reg_health_assessment,isha_sp_registration.group_sp_ha_screening_doctor,1,1,0,0
access_sp_reg_health_assessment_review_doctor,access_sp_reg_health_assessment_review_doctor,model_sp_reg_health_assessment,isha_sp_registration.group_sp_ha_doctor_approval,1,1,0,0
access_sp_reg_health_assessment_ha_manager,access_sp_reg_health_assessment_ha_manager,model_sp_reg_health_assessment,isha_sp_registration.group_sp_ha_manager,1,1,0,0
access_sp_reg_condition_details_base,access_sp_reg_condition_details_base,model_sp_reg_condition_details_base,sp_registration_implicit,1,0,0,0
access_sp_reg_condition_details_common,access_sp_reg_condition_details_common,model_sp_reg_condition_details_common,sp_registration_implicit,1,0,0,0
access_sp_reg_condition_details_bloodtransfusion,access_sp_reg_condition_details_bloodtransfusion,model_sp_reg_condition_details_bloodtransfusion,sp_registration_implicit,1,0,0,0
access_sp_reg_condition_details_surgery,access_sp_reg_condition_details_surgery,model_sp_reg_condition_details_surgery,sp_registration_implicit,1,0,0,0
access_sp_reg_condition_details_hospitalization,access_sp_reg_condition_details_hospitalization,model_sp_reg_condition_details_hospitalization,sp_registration_implicit,1,0,0,0
access_sp_reg_condition_details_consumption,access_sp_reg_condition_details_consumption,model_sp_reg_condition_details_consumption,sp_registration_implicit,1,0,0,0
access_sp_reg_condition_details_alcohol,access_sp_reg_condition_details_alcohol,model_sp_reg_condition_details_alcohol,sp_registration_implicit,1,0,0,0
access_sp_reg_condition_details_tobacco,access_sp_reg_condition_details_tobacco,model_sp_reg_condition_details_tobacco,sp_registration_implicit,1,0,0,0
access_sp_reg_condition_details_substance,access_sp_reg_condition_details_substance,model_sp_reg_condition_details_substance,sp_registration_implicit,1,0,0,0
access_sp_reg_condition_details_covid,access_sp_reg_condition_details_covid,model_sp_reg_condition_details_covid,sp_registration_implicit,1,0,0,0
access_sp_reg_condition_details_family,access_sp_reg_condition_details_family,model_sp_reg_condition_details_family,sp_registration_implicit,1,0,0,0
access_sp_reg_alcohol_consumption_details,access_sp_reg_alcohol_consumption_details,model_sp_reg_alcohol_consumption_details,sp_registration_implicit,1,0,0,0
access_sp_reg_substance_consumption_details,access_sp_reg_substance_consumption_details,model_sp_reg_substance_consumption_details,sp_registration_implicit,1,0,0,0
access_sp_reg_prescribed_medications,access_sp_reg_prescribed_medications,model_sp_reg_prescribed_medications,sp_registration_implicit,1,0,0,0
access_sp_reg_covid_condition_name,access_sp_reg_covid_condition_name,model_sp_reg_covid_condition_name,sp_registration_implicit,1,0,0,0
access_sp_reg_covid_condition_name_admin,access_sp_reg_covid_condition_name_admin,model_sp_reg_covid_condition_name,group_sp_registration_admin,1,1,1,1
access_sp_reg_medical_condition_reports,access_sp_reg_medical_condition_reports,model_sp_reg_medical_condition_reports,sp_registration_implicit,1,0,0,0
access_sp_reg_medical_condition_reports_admin,access_sp_reg_medical_condition_reports_admin,model_sp_reg_medical_condition_reports,group_sp_registration_admin,1,1,1,1

access_sp_reg_medical_condition,access_sp_reg_medical_condition,model_sp_reg_medical_condition,sp_registration_implicit,1,1,1,0
access_sp_reg_medical_condition_name,access_sp_reg_medical_condition_name,model_sp_reg_medical_condition_name,sp_registration_implicit,1,1,1,0
access_sp_reg_medical_condition_category,access_sp_reg_medical_condition_category,model_sp_reg_medical_condition_category,sp_registration_implicit,1,1,1,0
access_sp_reg_medical_condition_applicability,access_sp_reg_medical_condition_applicability,model_sp_reg_medical_condition_applicability,sp_registration_implicit,1,1,1,0
access_ha_additional_values,access_ha_additional_values,model_ha_additional_values,sp_registration_implicit,1,0,1,0
access_ha_additional_values_sp_admin,access_ha_additional_values_sp_admin,model_ha_additional_values,group_sp_registration_admin,1,1,1,0

access_sp_registration_profile,name_sp_registration_profile,model_sp_registration_profile,sp_registration_implicit,1,0,0,0
access_sp_registration_profile_admin,name_sp_registration_profile_admin,model_sp_registration_profile,group_sp_registration_admin,1,1,0,0
access_sp_registration_profile_interviewer,name_sp_registration_profile_interviewer,model_sp_registration_profile,group_sp_appointment_interviewer,1,1,0,0
access_sp_registration_profile_gazette_details,sp.registration.profile.gazette.details,model_sp_registration_profile_gazette_details,sp_registration_implicit,1,0,0,0
access_sp_registration_profile_nationality_details,sp.registration.profile.nationality.details,model_sp_registration_profile_nationality_details,sp_registration_implicit,1,0,0,0
access_sp_registration_profile_gazette_details_sp_admin,sp.registration.profile.gazette.details.spadmin,model_sp_registration_profile_gazette_details,group_sp_registration_admin,1,1,1,1
access_sp_registration_profile_nationality_details_sp_admin,sp.registration.profile.nationality.details.spadmin,model_sp_registration_profile_nationality_details,group_sp_registration_admin,1,1,1,1

access_sp_appointment_implicit,sp.appointment.implicit,model_sp_appointment,sp_registration_implicit,1,0,0,0
access_sp_appointment_interviewer,sp.appointment.interviewer,model_sp_appointment,group_sp_appointment_interviewer,1,0,0,0
access_sp_appointment_interview_scheduler,sp.appointment_interview_scheduler,model_sp_appointment,group_sp_appointment_interview_scheduler,1,1,1,0
access_sp_interviewer_interviewer,sp.interviewer.interviewer,model_sp_interviewer,group_sp_appointment_interviewer,1,1,1,0
access_sp_interviewer_interview_scheduler,sp.interviewer_interview_scheduler,model_sp_interviewer,group_sp_appointment_interview_scheduler,1,1,1,1
access_appointment_comment_type_interviewer,access_appointment_comment_type_interviewer,model_appointment_comment_type,group_sp_appointment_interviewer,1,0,0,0
access_appointment_comment_type_scheduler,access_appointment_comment_type_scheduler,model_appointment_comment_type,group_sp_appointment_interview_scheduler,1,0,0,0
access_sp_appointment_comment_interviewer,access_sp_appointment_comment_interviewer,model_sp_appointment_comment,group_sp_appointment_interviewer,1,0,0,0
access_sp_appointment_comment_scheduler,access_sp_appointment_comment_scheduler,model_sp_appointment_comment,group_sp_appointment_interview_scheduler,1,0,0,0
access_calendar_event_interview_scheduler,calendar.event_interview_scheduler,calendar.model_calendar_event,group_sp_appointment_interview_scheduler,1,1,1,1
calendar.access_calendar_event_group_system,calendar.event_group_system,calendar.model_calendar_event,base.group_system,1,1,1,1
calendar.access_calendar_event_all_employee,calendar.event_all_employee,calendar.model_calendar_event,sp_registration_implicit,1,1,1,0
calendar.access_calendar_event_partner_manager,calendar.event.partner.manager,calendar.model_calendar_event,base.group_partner_manager,1,1,1,0

access_res_users_interview_scheduler,access_res_users_interview_scheduler,base.model_res_users,group_sp_appointment_interview_scheduler,1,0,0,0
access_res_users_interview,access_res_users_interview,base.model_res_users,group_sp_appointment_interviewer,1,0,0,0

access_sp_reg_trial_period,name_sp_reg_trial_period,model_sp_reg_trial_period,sp_registration_implicit,1,0,0,0
access_sp_reg_trial_period_trial_user,name_sp_reg_trial_period_trial_user,model_sp_reg_trial_period,isha_sp_registration.group_sp_trial_user,1,1,1,1
access_sp_final_approval,name_sp_final_approval,model_sp_final_approval,sp_registration_implicit,1,0,0,0

access_registration_feedback_trial_user,name_registration_feedback_trial_user,model_registration_feedback,isha_sp_registration.group_sp_trial_user,1,1,1,1

access_sp_final_approval,name_sp_final_approval,model_sp_final_approval,sp_registration_implicit,1,1,0,0

access_sp_low_match_pairs_admin,access_sp_low_match_pairs_admin,isha_crm.model_low_match_pairs,group_sp_registration_admin,1,1,1,1
access_sp_low_match_pairs_imp,access_sp_low_match_pairs_imp,isha_crm.model_low_match_pairs,group_sp_registration_admin,1,0,0,1

access_sp_sms_configuration,access_name_sp_sms_configuration,model_sp_sms_configuration,group_sp_sms,1,1,1,0
access_sp_sms_text,access_name_sp_sms_text,model_sp_sms_text,group_sp_sms,1,1,1,1
access_sp_sms_recipients,access_name_sp_sms_recipients,model_sp_sms_recipients,group_sp_sms,1,1,1,1
access_sp_sms_recipients_status,access_name_sp_sms_recipients_status,model_sp_sms_recipients_status,group_sp_sms,1,1,1,1

access_sp_admin_isha_programs_ro,name_sp_admin_isha_programs_ro,isha_volunteer.model_isha_programs,isha_sp_registration.group_sp_registration_admin,1,1,1,1
access_sp_admin_educational_qualification_ro,name_sp_admin_educational_qualification_ro,isha_volunteer.model_educational_qualification,isha_sp_registration.group_sp_registration_admin,1,1,1,1
access_sp_admin_isha_yatra_name,name_sp_admin_isha_yatra_name,isha_volunteer.model_isha_yatra_name,isha_sp_registration.group_sp_registration_admin,1,1,1,1
access_sp_admin_isha_event_name,name_sp_admin_isha_event_name,isha_volunteer.model_isha_event_name,isha_sp_registration.group_sp_registration_admin,1,1,1,1
access_sp_admin_main_center_volunteering_activity,name_sp_admin_main_center_volunteering_activity,isha_volunteer.model_main_center_volunteering_activity,isha_sp_registration.group_sp_registration_admin,1,1,1,1
access_sp_admin_local_volunteering_activity,name_sp_admin_local_volunteering_activity,isha_volunteer.model_local_volunteering_activity,isha_sp_registration.group_sp_registration_admin,1,1,1,1
access_sp_admin_work_industry,name_sp_admin_work_industry,isha_volunteer.model_work_industry,isha_sp_registration.group_sp_registration_admin,1,1,1,1

access_isha_volunteer_sp_implicit,name_isha_volunteer_sp_implicit,isha_volunteer.model_isha_volunteer,sp_registration_implicit,1,0,0,0

access_isha_volunteer_skill_ro4,name_isha_volunteer_skill_ro4,isha_volunteer.model_isha_volunteer_skill,group_sp_registration_admin,1,1,1,0

access_isha_connect3,name_isha_connect3,isha_volunteer.model_isha_connect,sp_registration_implicit,1,0,0,0
access_isha_connect4,name_isha_connect4,isha_volunteer.model_isha_connect,group_sp_registration_admin,1,1,1,0

access_isha_volunteer_skill_function_ro4,name_isha_volunteer_skill_function_ro4,isha_volunteer.model_isha_volunteer_skill_function,group_sp_registration_admin,1,1,1,0

isha_volunteer_sp_admin,isha_volunteer_sp_admin,isha_volunteer.model_isha_volunteer,group_sp_registration_admin,1,1,1,1
isha_volunteer_interviewer,isha_volunteer_interviewer,isha_volunteer.model_isha_volunteer,group_sp_appointment_interviewer,1,1,1,1
access_isha_volunteer_edu_qualification_ro_sp_admin,name_isha_volunteer_edu_qualification_ro_sp_admin,isha_volunteer.model_isha_volunteer_edu_qualification,group_sp_registration_admin,1,1,1,1
access_isha_volunteer_edu_qualification_ro_interviewer,name_isha_volunteer_edu_qualification_ro_interviewer,isha_volunteer.model_isha_volunteer_edu_qualification,group_sp_appointment_interviewer,1,1,1,1
access_isha_volunteer_work_experience_ro_sp_admin,name_isha_volunteer_work_experience_ro_sp_admin,isha_volunteer.model_isha_volunteer_work_experience,group_sp_registration_admin,1,1,1,1
access_isha_volunteer_work_experience_ro_interviewer,name_isha_volunteer_work_experience_ro_interviewer,isha_volunteer.model_isha_volunteer_work_experience,group_sp_appointment_interviewer,1,1,1,1
access_isha_volunteer_languages_ro_sp_admin,name_isha_volunteer_languages_ro_sp_admin,isha_volunteer.model_isha_volunteer_languages,group_sp_registration_admin,1,1,1,1
access_isha_volunteer_languages_ro_interviewer,name_isha_volunteer_languages_ro_interviewer,isha_volunteer.model_isha_volunteer_languages,group_sp_appointment_interviewer,1,1,1,1
access_isha_volunteer_main_center_volunteering_sp_admin,name_isha_volunteer_main_center_volunteering_sp_admin,isha_volunteer.model_isha_volunteer_main_center_volunteering,group_sp_registration_admin,1,1,1,1
access_isha_volunteer_main_center_volunteering_interviewer,name_isha_volunteer_main_center_volunteering_interviewer,isha_volunteer.model_isha_volunteer_main_center_volunteering,group_sp_appointment_interviewer,1,1,1,1
access_isha_volunteer_local_volunteering_sp_admin,name_isha_volunteer_local_volunteering_sp_admin,isha_volunteer.model_isha_volunteer_local_volunteering,group_sp_registration_admin,1,1,1,1
access_isha_volunteer_local_volunteering_interviewer,name_isha_volunteer_local_volunteering_interviewer,isha_volunteer.model_isha_volunteer_local_volunteering,group_sp_appointment_interviewer,1,1,1,1
access_isha_volunteer_family_details_sp_admin,name_isha_volunteer_family_details_sp_admin,isha_volunteer.model_isha_volunteer_family_details,group_sp_registration_admin,1,1,1,1
access_isha_volunteer_family_details_interviewer,name_isha_volunteer_family_details_interviewer,isha_volunteer.model_isha_volunteer_family_details,group_sp_appointment_interviewer,1,1,1,1
access_proof_type_ro_sp_admin,name_proof_type_ro_sp_admin,isha_volunteer.model_proof_type,group_sp_registration_admin,1,1,1,1
access_proof_type_ro_interviewer,name_proof_type_ro_interviewer,isha_volunteer.model_proof_type,group_sp_appointment_interviewer,1,1,1,1
access_isha_volunteer_emergency_contact_sp_admin,name_isha_volunteer_emergency_contact_sp_admin,isha_volunteer.model_isha_volunteer_emergency_contact,group_sp_registration_admin,1,1,1,1
access_isha_volunteer_emergency_contact_interviewer,name_isha_volunteer_emergency_contact_interviewer,isha_volunteer.model_isha_volunteer_emergency_contact,group_sp_appointment_interviewer,1,1,1,1
access_isha_volunteer_program_history_sp_admin,name_isha_volunteer_program_history_sp_admin,isha_volunteer.model_isha_volunteer_program_history,group_sp_registration_admin,1,1,1,1
access_isha_volunteer_program_history_interviewer,name_isha_volunteer_program_history_interviewer,isha_volunteer.model_isha_volunteer_program_history,group_sp_appointment_interviewer,1,1,1,1
access_isha_volunteer_yatra_history_sp_admin,name_isha_volunteer_yatra_history_sp_admin,isha_volunteer.model_isha_volunteer_yatra_history,group_sp_registration_admin,1,1,1,1
access_isha_volunteer_yatra_history_interviewer,name_isha_volunteer_yatra_history_interviewer,isha_volunteer.model_isha_volunteer_yatra_history,group_sp_appointment_interviewer,1,1,1,1
access_isha_volunteer_event_history_sp_admin,name_isha_volunteer_event_history_sp_admin,isha_volunteer.model_isha_volunteer_event_history,group_sp_registration_admin,1,1,1,1
access_isha_volunteer_event_history_interviewer,name_isha_volunteer_event_history_interviewer,isha_volunteer.model_isha_volunteer_event_history,group_sp_appointment_interviewer,1,1,1,1

access_calendar_event_type_sp_admin,calendar.event.type.sp.admin,calendar.model_calendar_event_type,group_sp_registration_admin,1,1,1,0
